…
Then we unnest and count. The unnest has two advantages above a simple unique call: it makes a unique list, but also shows us how frequent these are

```R
listings_raw %>%
  select(amenities) %>%
  filter(amenities != "[]", !is.na(amenities)) %>%
  mutate(amenities = lapply(amenities, fromJSON)) %>%
  unnest(amenities) %>%
  count(amenities, sort = TRUE)
```

```
# A tibble: 6,307 × 2
   amenities                 n
   <chr>                 <int>
 1 Wifi                  23200
 2 Kitchen               22959
 3 Hangers               19626
 4 Iron                  19170
 5 Hot water             19099
 6 Dishes and silverware 18658
 7 Essentials            18532
 8 Bed linens            17786
 9 Microwave             17706
10 Cooking basics        17602
# ℹ 6,297 more rows
```

Ah. Makes sense. Wifi is absolutely important. Wait... "6,297 more rows"... heh? Let me flip the order with a `arrange(desc(amenities))`:

```
# A tibble: 6,307 × 2
   amenities                                      n
   <chr>                                      <int>
 1 其他 gas stove                                 1
 2 Zanussi stainless steel oven                   1
 3 Zanussi stainless steel gas stove              1
 4 Yuppychef induction stove                      1
 5 Yuppie Chef induction stove                    1
 6 Yuppi chef induction stove                     1
 7 Yes 2 assorted  body soap                      1
 8 Yamaha system sound system with aux            1
 9 Yamaha sound system with aux                   4
10 Yamaha sound system with Bluetooth and aux     3
# ℹ 6,297 more rows
```

Clearly there isn't a multi picklist select option for the `amenities` you add... Let's have a look at the different types of wifi:

```R
amenities_freq %>%
  filter(str_detect(amenities, regex("wifi", ignore_case = TRUE)))
```

```txt
# A tibble: 298 × 2
   amenities               n
   <chr>               <int>
 1 Wifi                23200
 2 Pocket wifi           330
 3 Fast wifi – 52 Mbps    48
 4 Wifi – 48 Mbps         40
 5 Fast wifi – 51 Mbps    39
 6 Wifi – 47 Mbps         38
 7 Fast wifi – 50 Mbps    37
 8 Wifi – 31 Mbps         36
 9 Wifi – 36 Mbps         35
10 Wifi – 49 Mbps         33
# ℹ 288 more rows
```
…
